...........
----------------------------------------------------------------------
Ran 11 tests in 0.004s

OK
Name               Stmts   Miss Branch BrPart  Cover   Missing
--------------------------------------------------------------
Diplomacy.py         100      6     64      3    95%   85-87, 108-110, 84->85, 103->76, 107->108
TestDiplomacy.py      61      0      2      1    98%   87->exit
--------------------------------------------------------------
TOTAL                161      6     66      4    96%