...............
----------------------------------------------------------------------
Ran 15 tests in 0.009s

OK
Name               Stmts   Miss Branch BrPart  Cover   Missing
--------------------------------------------------------------
Diplomacy.py          59      0     30      0   100%
TestDiplomacy.py      79      0      2      0   100%
--------------------------------------------------------------
TOTAL                138      0     32      0   100%
