...............
----------------------------------------------------------------------
Ran 15 tests in 0.000s

OK
Name               Stmts   Miss Branch BrPart  Cover   Missing
--------------------------------------------------------------
Diplomacy.py          50      0     34      0   100%
TestDiplomacy.py      61      0      2      0   100%
--------------------------------------------------------------
TOTAL                111      0     36      0   100%



..............
----------------------------------------------------------------------
Ran 14 tests in 0.002s

OK
Name               Stmts   Miss Branch BrPart  Cover   Missing
--------------------------------------------------------------
Diplomacy.py          50      0     34      0   100%
TestDiplomacy.py      56      0      2      0   100%
--------------------------------------------------------------
TOTAL                106      0     36      0   100%


.............
----------------------------------------------------------------------
Ran 13 tests in 0.001s

OK
Name               Stmts   Miss Branch BrPart  Cover   Missing
--------------------------------------------------------------
Diplomacy.py          49      0     32      0   100%
TestDiplomacy.py      53      0      2      0   100%
--------------------------------------------------------------
TOTAL                102      0     34      0   100%



....
----------------------------------------------------------------------
Ran 4 tests in 0.001s

OK
Name               Stmts   Miss Branch BrPart  Cover   Missing
--------------------------------------------------------------
Diplomacy.py          13      2      2      0    87%   43, 56
TestDiplomacy.py      19      0      2      0   100%
--------------------------------------------------------------
TOTAL                 32      2      4      0    94%


....
----------------------------------------------------------------------
Ran 4 tests in 0.001s

OK
Name               Stmts   Miss Branch BrPart  Cover   Missing
--------------------------------------------------------------
Diplomacy.py          54     42     24      0    18%   41-101, 116, 129
TestDiplomacy.py      19      0      2      0   100%
--------------------------------------------------------------
TOTAL                 73     42     26      0    35%


.
----------------------------------------------------------------------
Ran 1 test in 0.001s

OK
Name               Stmts   Miss Branch BrPart  Cover   Missing
--------------------------------------------------------------
Diplomacy.py           2      1      0      0    50%   6
TestDiplomacy.py       9      0      2      0   100%
--------------------------------------------------------------
TOTAL                 11      1      2      0    92%
