...............
----------------------------------------------------------------------
Ran 15 tests in 0.003s

OK
Name               Stmts   Miss Branch BrPart  Cover   Missing
--------------------------------------------------------------
Diplomacy.py          85      0     44      2    98%   118->122, 124->102
TestDiplomacy.py     115      2     32      3    97%   111, 122, 143->141
--------------------------------------------------------------
TOTAL                200      2     76      5    97%
