...
----------------------------------------------------------------------
Ran 3 tests in 0.005s

OK
Name               Stmts   Miss  Cover
--------------------------------------
Diplomacy.py          55      0   100%
TestDiplomacy.py      18      0   100%
--------------------------------------
TOTAL                 73      0   100%
