A Bogota
B Genoa
C Milan
D Paris
E Verona
F Naples
G Florence
H Venice
I Rome
J Dijon
K Lille
L Nantes
M Valencia
N Cartagena
O Rosario
P Barranquilla
Q Recife
R Medellin
S Fortaleza
T Salvador
U Caracas
V SaoPablo
W Johannesburg
X Lagos
Y Havana
Z Lima
