....
----------------------------------------------------------------------
Ran 4 tests in 0.001s

OK
Name               Stmts   Miss Branch BrPart  Cover   Missing
--------------------------------------------------------------
Diplomacy.py          71      1     45      2    97%   16->exit, 94
TestDiplomacy.py      20      0      0      0   100%
--------------------------------------------------------------
TOTAL                 91      1     45      2    98%
